Text analysis with R: All in One View
…
R

articles <- read_csv("data/guardianArticles.csv", na = c("NA", "NULL", ""))

Taking a first look at the dataset

R

articles

OUTPUT

# A tibble: 1,898 × 7
      id date    text                            section region author wordcount
   <dbl> <chr>   <chr>                           <chr>   <chr>  <chr>      <dbl>
 1     1 2026-05 Britain’s biometrics watchdogs… News    UK     Jessi…      1328
 2     2 2026-02 Iran’s architecture of interne… News    UK     Aisha…       657
 3     3 2026-01 TikTok will begin to roll out … News    UK     Mark …       623
 4     4 2026-05 The parent company of Donald T… News    US     Edwar…       348
 5     5 2026-05 It is a familiar story. Extrav… Opinion UK     Edito…       585
 6     6 2026-04 Sonia Bompastor, the Chelsea h… Sport   UK     Tom G…       468
 7     7 2026-03 Transcription ends with an epi… Arts    UK     Sukhd…       917
 8     8 2026-04 When Greg Swann was appointed … Sport   AUS    Jonat…       794
 9     9 2026-02 Immigration and Customs Enforc… News    US     Harry…       915
10    10 2026-01 Gathering Summer after summer,… News    UK     Rebec…      4213
# ℹ 1,888 more rows
…
To tokenise a column, we use the functions
unnest_tokens() from the tidytext-package. The
function gets two arguments. The first one is word. This
defines that the text should be split up by words. The second argument,
text, defines the column that we want to tokenise.

R

articles_tidy <- articles |> 
  unnest_tokens(word, text)
articles_tidy

OUTPUT

# A tibble: 2,405,300 × 7
      id date    section region author                          wordcount word
   <dbl> <chr>   <chr>   <chr>  <chr>                               <dbl> <chr>
 1     1 2026-05 News    UK     Jessica Murray and Robert Booth      1328 brita…
 2     1 2026-05 News    UK     Jessica Murray and Robert Booth      1328 biome…
 3     1 2026-05 News    UK     Jessica Murray and Robert Booth      1328 watch…
 4     1 2026-05 News    UK     Jessica Murray and Robert Booth      1328 have
 5     1 2026-05 News    UK     Jessica Murray and Robert Booth      1328 warned
 6     1 2026-05 News    UK     Jessica Murray and Robert Booth      1328 that
 7     1 2026-05 News    UK     Jessica Murray and Robert Booth      1328 natio…
 8     1 2026-05 News    UK     Jessica Murray and Robert Booth      1328 overs…
 9     1 2026-05 News    UK     Jessica Murray and Robert Booth      1328 of
10     1 2026-05 News    UK     Jessica Murray and Robert Booth      1328 ai
# ℹ 2,405,290 more rows
…
Stopwords

The next step is to remove stopwords. We have chosen to use the
stopword list from the package tidytext. The list contains
1,149 words that are considered stopwords. Other lists are available,
and they differ in terms of how many words they contain.

R

data(stop_words)
stop_words

OUTPUT

# A tibble: 1,149 × 2
   word        lexicon
   <chr>       <chr>
 1 a           SMART
 2 a's         SMART
 3 able        SMART
 4 about       SMART
 5 above       SMART
 6 according   SMART
 7 accordingly SMART
 8 across      SMART
 9 actually    SMART
10 after       SMART
# ℹ 1,139 more rows
…
In order to remove stopwords from articles_tidy, we have
to use the anti_join-function.

R

articles_anti_join <- articles_tidy |> 
  anti_join(stop_words, by = "word")
articles_anti_join

OUTPUT

# A tibble: 1,118,028 × 7
      id date    section region author                          wordcount word
   <dbl> <chr>   <chr>   <chr>  <chr>                               <dbl> <chr>
 1     1 2026-05 News    UK     Jessica Murray and Robert Booth      1328 brita…
 2     1 2026-05 News    UK     Jessica Murray and Robert Booth      1328 biome…
 3     1 2026-05 News    UK     Jessica Murray and Robert Booth      1328 watch…
 4     1 2026-05 News    UK     Jessica Murray and Robert Booth      1328 warned
 5     1 2026-05 News    UK     Jessica Murray and Robert Booth      1328 natio…
 6     1 2026-05 News    UK     Jessica Murray and Robert Booth      1328 overs…
 7     1 2026-05 News    UK     Jessica Murray and Robert Booth      1328 ai
 8     1 2026-05 News    UK     Jessica Murray and Robert Booth      1328 power…
 9     1 2026-05 News    UK     Jessica Murray and Robert Booth      1328 scann…
10     1 2026-05 News    UK     Jessica Murray and Robert Booth      1328 catch
# ℹ 1,118,018 more rows
…
Learn how to analyse and visualise it

Frequency analysis

A word frequency is a relatively simple analysis. It measures how
often words occur in a text.

R

articles_anti_join |> 
  count(word, sort = TRUE)

OUTPUT

# A tibble: 68,899 × 2
   word           n
   <chr>      <int>
 1 it’s        6584
 2 ai          5778
 3 people      4422
 4 time        4277
 5 technology  3946
 6 world       2758
 7 don’t       2131
 8 day         1803
 9 life        1694
10 uk          1690
# ℹ 68,889 more rows
…
R

articles_filtered <- articles_anti_join |> 
  filter(!word %in% c("it’s", "don’t"))

articles_filtered |> 
  count(word, sort = TRUE)

OUTPUT

# A tibble: 68,897 × 2
   word           n
   <chr>      <int>
 1 ai          5778
 2 people      4422
 3 time        4277
 4 technology  3946
 5 world       2758
 6 day         1803
 7 life        1694
 8 uk          1690
 9 that’s      1667
10 government  1644
# ℹ 68,887 more rows

The words deemed irrelevant are no longer on the list above.

Instead of a general list it may be more interesting to focus on the
most frequent words belonging to articles about the two presidents
respectively.

R

articles_filtered |> 
  count(section, word, sort = TRUE)

OUTPUT

# A tibble: 138,065 × 3
   section   word           n
   <chr>     <chr>      <int>
 1 News      ai          3131
 2 News      technology  1993
 3 Sport     england     1371
 4 Sport     ball        1287
 5 Opinion   ai          1250
 6 Sport     1           1239
 7 News      people      1196
 8 Lifestyle time        1117
 9 Lifestyle people      1062
10 Sport     time        1050
# ℹ 138,055 more rows
…
There are multiple sentiment lexicons. For a start we will be using
the bing lexicon. This lexicon categorizes words as either
positive or negative.

R

get_sentiments("bing")

OUTPUT

# A tibble: 6,786 × 2
   word        sentiment
   <chr>       <chr>
 1 2-faces     negative
 2 abnormal    negative
 3 abolish     negative
 4 abominable  negative
 5 abominably  negative
 6 abominate   negative
 7 abomination negative
 8 abort       negative
 9 aborted     negative
10 aborts      negative
# ℹ 6,776 more rows
…
articles_bing <- articles_filtered |> 
  inner_join(bing)

OUTPUT

Joining with `by = join_by(word)`

R

articles_bing

OUTPUT

# A tibble: 123,667 × 8
      id date    section region author                 wordcount word  sentiment
   <dbl> <chr>   <chr>   <chr>  <chr>                      <dbl> <chr> <chr>
 1     1 2026-05 News    UK     Jessica Murray and Ro…      1328 warn… negative
 2     1 2026-05 News    UK     Jessica Murray and Ro…      1328 over… negative
 3     1 2026-05 News    UK     Jessica Murray and Ro…      1328 lagg… negative
 4     1 2026-05 News    UK     Jessica Murray and Ro…      1328 rapid positive
 5     1 2026-05 News    UK     Jessica Murray and Ro…      1328 slow  negative
 6     1 2026-05 News    UK     Jessica Murray and Ro…      1328 warn… negative
 7     1 2026-05 News    UK     Jessica Murray and Ro…      1328 effe… positive
 8     1 2026-05 News    UK     Jessica Murray and Ro…      1328 misu… negative
 9     1 2026-05 News    UK     Jessica Murray and Ro…      1328 over… negative
10     1 2026-05 News    UK     Jessica Murray and Ro…      1328 brea… positive
# ℹ 123,657 more rows
…
