…
## Tokenisation

Since we are working with text mining, we focus on the `text` coloumn. We do this because the coloumn contains the text from the articles in question.

To tokenise a column, we use the functions `unnest_tokens()` from the `tidytext`-package. The function gets two arguments. The first one is `word`. This defines that the text should be split up by words. The second argument, `text`, defines the column that we want to tokenise.


``` r
articles_tidy <- articles |> 
  unnest_tokens(word, text)
articles_tidy
```

``` output
# A tibble: 2,405,300 × 7
      id date    section region author                          wordcount word  
   <dbl> <chr>   <chr>   <chr>  <chr>                               <dbl> <chr> 
 1     1 2026-05 News    UK     Jessica Murray and Robert Booth      1328 brita…
 2     1 2026-05 News    UK     Jessica Murray and Robert Booth      1328 biome…
 3     1 2026-05 News    UK     Jessica Murray and Robert Booth      1328 watch…
 4     1 2026-05 News    UK     Jessica Murray and Robert Booth      1328 have  
 5     1 2026-05 News    UK     Jessica Murray and Robert Booth      1328 warned
 6     1 2026-05 News    UK     Jessica Murray and Robert Booth      1328 that  
 7     1 2026-05 News    UK     Jessica Murray and Robert Booth      1328 natio…
 8     1 2026-05 News    UK     Jessica Murray and Robert Booth      1328 overs…
 9     1 2026-05 News    UK     Jessica Murray and Robert Booth      1328 of    
10     1 2026-05 News    UK     Jessica Murray and Robert Booth      1328 ai    
# ℹ 2,405,290 more rows
```
…
::::

## Stopwords

The next step is to remove stopwords. We have chosen to use the stopword list from the package `tidytext`. The list contains 1,149 words that are considered stopwords. Other lists are available, and they differ in terms of how many words they contain.


``` r
data(stop_words)
stop_words
```

``` output
# A tibble: 1,149 × 2
   word        lexicon
   <chr>       <chr>  
 1 a           SMART  
 2 a's         SMART  
 3 able        SMART  
 4 about       SMART  
 5 above       SMART  
 6 according   SMART  
 7 accordingly SMART  
 8 across      SMART  
 9 actually    SMART  
10 after       SMART  
# ℹ 1,139 more rows
```
…
In order to remove stopwords from `articles_tidy`, we have to use the `anti_join`-function.


``` r
articles_anti_join <- articles_tidy |> 
  anti_join(stop_words, by = "word")
articles_anti_join
```

``` output
# A tibble: 1,118,028 × 7
      id date    section region author                          wordcount word  
   <dbl> <chr>   <chr>   <chr>  <chr>                               <dbl> <chr> 
 1     1 2026-05 News    UK     Jessica Murray and Robert Booth      1328 brita…
 2     1 2026-05 News    UK     Jessica Murray and Robert Booth      1328 biome…
 3     1 2026-05 News    UK     Jessica Murray and Robert Booth      1328 watch…
 4     1 2026-05 News    UK     Jessica Murray and Robert Booth      1328 warned
 5     1 2026-05 News    UK     Jessica Murray and Robert Booth      1328 natio…
 6     1 2026-05 News    UK     Jessica Murray and Robert Booth      1328 overs…
 7     1 2026-05 News    UK     Jessica Murray and Robert Booth      1328 ai    
 8     1 2026-05 News    UK     Jessica Murray and Robert Booth      1328 power…
 9     1 2026-05 News    UK     Jessica Murray and Robert Booth      1328 scann…
10     1 2026-05 News    UK     Jessica Murray and Robert Booth      1328 catch 
# ℹ 1,118,018 more rows
```
…
