…
Sentiment analysis is a method used to identify and classify emotions in textual data. This is often done using word list (lexicons). The goal is to determine whether a given text has a positive, negative or neutral tone.

In order to do a sentiment analysis on our data we 
From the previous section we have a dataset containing a list of words in the text without stopwords. To do a sentiment analysis we can use a so-called lexicon and assign a sentiment to each word. In order to do this we need an list of words and their sentiment. A simple form would be wether they are positive or negative.

There are multiple sentiment lexicons. For a start we will be using the `bing` lexicon. This lexicon categorizes words as either positive or negative.



``` r
get_sentiments("bing")
```

``` output
# A tibble: 6,786 × 2
   word        sentiment
   <chr>       <chr>    
 1 2-faces     negative 
 2 abnormal    negative 
 3 abolish     negative 
 4 abominable  negative 
 5 abominably  negative 
 6 abominate   negative 
 7 abomination negative 
 8 abort       negative 
 9 aborted     negative 
10 aborts      negative 
# ℹ 6,776 more rows
```
…
``` r
articles_bing <- articles_filtered |> 
  inner_join(bing)
```

``` output
Joining with `by = join_by(word)`
```

``` r
articles_bing
```

``` output
# A tibble: 123,667 × 8
      id date    section region author                 wordcount word  sentiment
   <dbl> <chr>   <chr>   <chr>  <chr>                      <dbl> <chr> <chr>    
 1     1 2026-05 News    UK     Jessica Murray and Ro…      1328 warn… negative 
 2     1 2026-05 News    UK     Jessica Murray and Ro…      1328 over… negative 
 3     1 2026-05 News    UK     Jessica Murray and Ro…      1328 lagg… negative 
 4     1 2026-05 News    UK     Jessica Murray and Ro…      1328 rapid positive 
 5     1 2026-05 News    UK     Jessica Murray and Ro…      1328 slow  negative 
 6     1 2026-05 News    UK     Jessica Murray and Ro…      1328 warn… negative 
 7     1 2026-05 News    UK     Jessica Murray and Ro…      1328 effe… positive 
 8     1 2026-05 News    UK     Jessica Murray and Ro…      1328 misu… negative 
 9     1 2026-05 News    UK     Jessica Murray and Ro…      1328 over… negative 
10     1 2026-05 News    UK     Jessica Murray and Ro…      1328 brea… positive 
# ℹ 123,657 more rows
```
…
