Text analysis with R: Sentiment analysis
…
There are multiple sentiment lexicons. For a start we will be using
the bing lexicon. This lexicon categorizes words as either
positive or negative.

R

get_sentiments("bing")

OUTPUT

# A tibble: 6,786 × 2
   word        sentiment
   <chr>       <chr>
 1 2-faces     negative
 2 abnormal    negative
 3 abolish     negative
 4 abominable  negative
 5 abominably  negative
 6 abominate   negative
 7 abomination negative
 8 abort       negative
 9 aborted     negative
10 aborts      negative
# ℹ 6,776 more rows
…
articles_bing <- articles_filtered |> 
  inner_join(bing)

OUTPUT

Joining with `by = join_by(word)`

R

articles_bing

OUTPUT

# A tibble: 122,405 × 8
      id date    section region author                 wordcount word  sentiment
   <dbl> <chr>   <chr>   <chr>  <chr>                      <dbl> <chr> <chr>
 1     1 2026-05 News    UK     Jessica Murray and Ro…      1328 warn… negative
 2     1 2026-05 News    UK     Jessica Murray and Ro…      1328 over… negative
 3     1 2026-05 News    UK     Jessica Murray and Ro…      1328 lagg… negative
 4     1 2026-05 News    UK     Jessica Murray and Ro…      1328 rapid positive
 5     1 2026-05 News    UK     Jessica Murray and Ro…      1328 slow  negative
 6     1 2026-05 News    UK     Jessica Murray and Ro…      1328 warn… negative
 7     1 2026-05 News    UK     Jessica Murray and Ro…      1328 effe… positive
 8     1 2026-05 News    UK     Jessica Murray and Ro…      1328 misu… negative
 9     1 2026-05 News    UK     Jessica Murray and Ro…      1328 over… negative
10     1 2026-05 News    UK     Jessica Murray and Ro…      1328 brea… positive
# ℹ 122,395 more rows
…
