Text analysis with R: Loading data
…
R

articles <- read_csv("data/guardianArticles.csv", na = c("NA", "NULL", ""))

Taking a first look at the dataset

R

articles

OUTPUT

# A tibble: 1,898 × 7
      id date    text                            section region author wordcount
   <dbl> <chr>   <chr>                           <chr>   <chr>  <chr>      <dbl>
 1     1 2026-05 Britain’s biometrics watchdogs… News    UK     Jessi…      1328
 2     2 2026-02 Iran’s architecture of interne… News    UK     Aisha…       657
 3     3 2026-01 TikTok will begin to roll out … News    UK     Mark …       623
 4     4 2026-05 The parent company of Donald T… News    US     Edwar…       348
 5     5 2026-05 It is a familiar story. Extrav… Opinion UK     Edito…       585
 6     6 2026-04 Sonia Bompastor, the Chelsea h… Sport   UK     Tom G…       468
 7     7 2026-03 Transcription ends with an epi… Arts    UK     Sukhd…       917
 8     8 2026-04 When Greg Swann was appointed … Sport   AUS    Jonat…       794
 9     9 2026-02 Immigration and Customs Enforc… News    US     Harry…       915
10    10 2026-01 Gathering Summer after summer,… News    UK     Rebec…      4213
# ℹ 1,888 more rows
…
